timeStamp,elapsed,label,responseCode,responseMessage,threadName,dataType,success,failureMessage,bytes,sentBytes,grpThreads,allThreads,Latency,IdleTime,Connect
1501873367226,847,Open Login Page,200,OK,Thread Group 1-1,text,true,,4640,413,1,1,836,0,796
1501873366863,847,Open Login Page,200,"Number of samples in transaction : 1, number of failing samples : 0",Thread Group 1-1,,true,,4640,413,1,1,836,378,796
1501873368390,5925,Login,200,OK,Thread Group 1-1,text,true,,8539,1470,1,1,5867,0,0
1501873374616,19,Open Reports page,200,OK,Thread Group 1-1,text,true,,6632,843,1,1,3,0,0
1501873368089,5944,Login,200,"Number of samples in transaction : 2, number of failing samples : 0",Thread Group 1-1,,true,,15171,2313,1,1,5870,602,0
1501873374936,23,Open Risk Management menu,200,OK,Thread Group 1-1,text,true,,9784,433,1,1,22,0,0
1501873374636,23,Open Risk Management Menu,200,"Number of samples in transaction : 1, number of failing samples : 0",Thread Group 1-1,,true,,9784,433,1,1,22,304,0
1501873375264,57,Submit Risk with File Attachment,200,OK,Thread Group 1-1,text,true,,11526,6546,1,1,53,0,0
1501873374963,57,Submit Risk with File Attachment,200,"Number of samples in transaction : 1, number of failing samples : 0",Thread Group 1-1,,true,,11526,6546,1,1,53,302,0
1501873375622,25,Logout,200,OK,Thread Group 1-1,text,true,,5358,850,1,1,15,0,0
1501873375948,13,Open Login Page,200,OK,Thread Group 1-1,text,true,,4785,415,1,1,12,0,0
1501873375322,38,Logout,200,"Number of samples in transaction : 2, number of failing samples : 0",Thread Group 1-1,,true,,10143,1265,1,1,27,601,0
1501873366863,6909,Submit Risk,200,"Number of samples in transaction : 11, number of failing samples : 0",Thread Group 1-1,,true,,51264,10970,1,1,6808,2189,796
1501873376265,21,Open Login Page,200,OK,Thread Group 1-1,text,true,,4781,441,1,1,21,0,5
1501873375964,21,Open Login Page,200,"Number of samples in transaction : 1, number of failing samples : 0",Thread Group 1-1,,true,,4781,441,1,1,21,302,5
1501873376587,6016,Login,200,OK,Thread Group 1-1,text,true,,8756,1451,1,1,5990,0,0
1501873382904,23,Open Reports page,200,OK,Thread Group 1-1,text,true,,6849,843,1,1,5,0,0
1501873376287,6039,Login,200,"Number of samples in transaction : 2, number of failing samples : 0",Thread Group 1-1,,true,,15605,2294,1,1,5995,602,0
1501873383228,20,Open Risk Management menu,200,OK,Thread Group 1-1,text,true,,10002,433,1,1,19,0,0
1501873382928,20,Open Risk Management Menu,200,"Number of samples in transaction : 1, number of failing samples : 0",Thread Group 1-1,,true,,10002,433,1,1,19,302,0
1501873383550,40,Submit Risk with File Attachment,200,OK,Thread Group 1-1,text,true,,11526,6662,1,1,39,0,0
1501873383250,40,Submit Risk with File Attachment,200,"Number of samples in transaction : 1, number of failing samples : 0",Thread Group 1-1,,true,,11526,6662,1,1,39,301,0
1501873383892,67,Logout,200,OK,Thread Group 1-1,text,true,,5358,850,1,1,13,0,0
1501873384260,9,Open Login Page,200,OK,Thread Group 1-1,text,true,,4785,415,1,1,9,0,0
1501873383591,76,Logout,200,"Number of samples in transaction : 2, number of failing samples : 0",Thread Group 1-1,,true,,10143,1265,1,1,22,603,0
1501873375964,6196,Submit Risk,200,"Number of samples in transaction : 11, number of failing samples : 0",Thread Group 1-1,,true,,52057,11095,1,1,6096,2110,5
1501873384572,10,Open Login Page,200,OK,Thread Group 1-1,text,true,,4780,441,1,1,9,0,0
1501873384272,10,Open Login Page,200,"Number of samples in transaction : 1, number of failing samples : 0",Thread Group 1-1,,true,,4780,441,1,1,9,300,0
1501873384883,5772,Login,200,OK,Thread Group 1-1,text,true,,8757,1451,1,1,5743,0,7
1501873390956,16,Open Reports page,200,OK,Thread Group 1-1,text,true,,6849,843,1,1,2,0,0
1501873384583,5788,Login,200,"Number of samples in transaction : 2, number of failing samples : 0",Thread Group 1-1,,true,,15606,2294,1,1,5745,602,7
1501873391273,16,Open Risk Management menu,200,OK,Thread Group 1-1,text,true,,10001,433,1,1,15,0,0
1501873390973,16,Open Risk Management Menu,200,"Number of samples in transaction : 1, number of failing samples : 0",Thread Group 1-1,,true,,10001,433,1,1,15,301,0
1501873391590,35,Submit Risk with File Attachment,200,OK,Thread Group 1-1,text,true,,11526,6372,1,1,34,0,0
1501873391290,35,Submit Risk with File Attachment,200,"Number of samples in transaction : 1, number of failing samples : 0",Thread Group 1-1,,true,,11526,6372,1,1,34,301,0
1501873391927,20,Logout,200,OK,Thread Group 1-1,text,true,,5358,850,1,1,11,0,0
1501873392248,11,Open Login Page,200,OK,Thread Group 1-1,text,true,,4785,415,1,1,10,0,0
1501873391627,31,Logout,200,"Number of samples in transaction : 2, number of failing samples : 0",Thread Group 1-1,,true,,10143,1265,1,1,21,602,0
1501873384272,5880,Submit Risk,200,"Number of samples in transaction : 11, number of failing samples : 0",Thread Group 1-1,,true,,52056,10805,1,1,5824,2108,7
1501873392561,111,Open Login Page,200,OK,Thread Group 1-1,text,true,,4780,441,1,1,110,0,0
1501873392261,111,Open Login Page,200,"Number of samples in transaction : 1, number of failing samples : 0",Thread Group 1-1,,true,,4780,441,1,1,110,301,0
1501873392973,5646,Login,200,OK,Thread Group 1-1,text,true,,8758,1451,1,1,5614,0,9
1501873398920,16,Open Reports page,200,OK,Thread Group 1-1,text,true,,6850,843,1,1,2,0,0
1501873392673,5662,Login,200,"Number of samples in transaction : 2, number of failing samples : 0",Thread Group 1-1,,true,,15608,2294,1,1,5616,601,9
1501873399238,16,Open Risk Management menu,200,OK,Thread Group 1-1,text,true,,10003,433,1,1,15,0,0
1501873398937,16,Open Risk Management Menu,200,"Number of samples in transaction : 1, number of failing samples : 0",Thread Group 1-1,,true,,10003,433,1,1,15,302,0
1501873399555,51,Submit Risk with File Attachment,200,OK,Thread Group 1-1,text,true,,11526,6604,1,1,50,0,0
1501873399255,51,Submit Risk with File Attachment,200,"Number of samples in transaction : 1, number of failing samples : 0",Thread Group 1-1,,true,,11526,6604,1,1,50,301,0
1501873399907,22,Logout,200,OK,Thread Group 1-1,text,true,,5358,850,1,1,12,0,0
1501873400230,10,Open Login Page,200,OK,Thread Group 1-1,text,true,,4785,415,1,1,9,0,0
1501873399607,32,Logout,200,"Number of samples in transaction : 2, number of failing samples : 0",Thread Group 1-1,,true,,10143,1265,1,1,21,601,0
1501873392261,5872,Submit Risk,200,"Number of samples in transaction : 11, number of failing samples : 0",Thread Group 1-1,,true,,52060,11037,1,1,5812,2106,9
1501873400541,10,Open Login Page,200,OK,Thread Group 1-1,text,true,,4780,441,1,1,10,0,0
1501873400241,10,Open Login Page,200,"Number of samples in transaction : 1, number of failing samples : 0",Thread Group 1-1,,true,,4780,441,1,1,10,301,0
1501873400853,5704,Login,200,OK,Thread Group 1-1,text,true,,8758,1451,1,1,5676,0,5
1501873406858,16,Open Reports page,200,OK,Thread Group 1-1,text,true,,6850,843,1,1,2,0,0
1501873400553,5720,Login,200,"Number of samples in transaction : 2, number of failing samples : 0",Thread Group 1-1,,true,,15608,2294,1,1,5678,601,5
1501873407175,21,Open Risk Management menu,200,OK,Thread Group 1-1,text,true,,10003,433,1,1,19,0,0
1501873406874,21,Open Risk Management Menu,200,"Number of samples in transaction : 1, number of failing samples : 0",Thread Group 1-1,,true,,10003,433,1,1,19,302,0
1501873407497,34,Submit Risk with File Attachment,200,OK,Thread Group 1-1,text,true,,11525,6372,1,1,32,0,0
1501873407197,34,Submit Risk with File Attachment,200,"Number of samples in transaction : 1, number of failing samples : 0",Thread Group 1-1,,true,,11525,6372,1,1,32,300,0
1501873407831,21,Logout,200,OK,Thread Group 1-1,text,true,,5358,850,1,1,12,0,0
1501873408153,11,Open Login Page,200,OK,Thread Group 1-1,text,true,,4785,415,1,1,11,0,0
1501873407531,32,Logout,200,"Number of samples in transaction : 2, number of failing samples : 0",Thread Group 1-1,,true,,10143,1265,1,1,23,602,0
1501873400241,5817,Submit Risk,200,"Number of samples in transaction : 11, number of failing samples : 0",Thread Group 1-1,,true,,52059,10805,1,1,5762,2107,5
1501873408466,11,Open Login Page,200,OK,Thread Group 1-1,text,true,,4780,441,1,1,10,0,0
1501873408165,11,Open Login Page,200,"Number of samples in transaction : 1, number of failing samples : 0",Thread Group 1-1,,true,,4780,441,1,1,10,302,0
1501873408779,5872,Login,200,OK,Thread Group 1-1,text,true,,8758,1451,1,1,5853,0,6
1501873414952,15,Open Reports page,200,OK,Thread Group 1-1,text,true,,6850,843,1,1,2,0,0
1501873408478,5887,Login,200,"Number of samples in transaction : 2, number of failing samples : 0",Thread Group 1-1,,true,,15608,2294,1,1,5855,602,6
1501873415268,14,Open Risk Management menu,200,OK,Thread Group 1-1,text,true,,9999,433,1,1,13,0,0
1501873414967,14,Open Risk Management Menu,200,"Number of samples in transaction : 1, number of failing samples : 0",Thread Group 1-1,,true,,9999,433,1,1,13,302,0
1501873415583,39,Submit Risk with File Attachment,200,OK,Thread Group 1-1,text,true,,11526,6488,1,1,38,0,0
1501873415283,39,Submit Risk with File Attachment,200,"Number of samples in transaction : 1, number of failing samples : 0",Thread Group 1-1,,true,,11526,6488,1,1,38,301,0
1501873415923,21,Logout,200,OK,Thread Group 1-1,text,true,,5358,850,1,1,13,0,0
1501873416246,9,Open Login Page,200,OK,Thread Group 1-1,text,true,,4785,415,1,1,9,0,0
1501873415623,30,Logout,200,"Number of samples in transaction : 2, number of failing samples : 0",Thread Group 1-1,,true,,10143,1265,1,1,22,603,0
1501873408165,5981,Submit Risk,200,"Number of samples in transaction : 11, number of failing samples : 0",Thread Group 1-1,,true,,52056,10921,1,1,5938,2110,6
1501873416557,11,Open Login Page,200,OK,Thread Group 1-1,text,true,,4780,441,1,1,10,0,0
1501873416256,11,Open Login Page,200,"Number of samples in transaction : 1, number of failing samples : 0",Thread Group 1-1,,true,,4780,441,1,1,10,301,0
1501873416869,5905,Login,200,OK,Thread Group 1-1,text,true,,8757,1451,1,1,5882,0,4
1501873423075,15,Open Reports page,200,OK,Thread Group 1-1,text,true,,6849,843,1,1,2,0,0
1501873416569,5920,Login,200,"Number of samples in transaction : 2, number of failing samples : 0",Thread Group 1-1,,true,,15606,2294,1,1,5884,601,4
1501873423390,15,Open Risk Management menu,200,OK,Thread Group 1-1,text,true,,10002,433,1,1,14,0,0
1501873423090,15,Open Risk Management Menu,200,"Number of samples in transaction : 1, number of failing samples : 0",Thread Group 1-1,,true,,10002,433,1,1,14,301,0
1501873423706,40,Submit Risk with File Attachment,200,OK,Thread Group 1-1,text,true,,11528,6488,1,1,39,0,0
1501873423406,40,Submit Risk with File Attachment,200,"Number of samples in transaction : 1, number of failing samples : 0",Thread Group 1-1,,true,,11528,6488,1,1,39,301,0
1501873424047,19,Logout,200,OK,Thread Group 1-1,text,true,,5358,850,1,1,11,0,0
1501873424367,9,Open Login Page,200,OK,Thread Group 1-1,text,true,,4785,415,1,1,8,0,0
1501873423747,28,Logout,200,"Number of samples in transaction : 2, number of failing samples : 0",Thread Group 1-1,,true,,10143,1265,1,1,19,601,0
1501873416256,6014,Submit Risk,200,"Number of samples in transaction : 11, number of failing samples : 0",Thread Group 1-1,,true,,52059,10921,1,1,5966,2106,4
1501873424677,18,Open Login Page,200,OK,Thread Group 1-1,text,true,,4780,441,1,1,17,0,0
1501873424377,18,Open Login Page,200,"Number of samples in transaction : 1, number of failing samples : 0",Thread Group 1-1,,true,,4780,441,1,1,17,301,0
1501873424996,5751,Login,200,OK,Thread Group 1-1,text,true,,8758,1451,1,1,5729,0,5
1501873431049,15,Open Reports page,200,OK,Thread Group 1-1,text,true,,6850,843,1,1,2,0,0
1501873424696,5766,Login,200,"Number of samples in transaction : 2, number of failing samples : 0",Thread Group 1-1,,true,,15608,2294,1,1,5731,602,5
1501873431365,16,Open Risk Management menu,200,OK,Thread Group 1-1,text,true,,10003,433,1,1,15,0,0
1501873431065,16,Open Risk Management Menu,200,"Number of samples in transaction : 1, number of failing samples : 0",Thread Group 1-1,,true,,10003,433,1,1,15,303,0
1501873431685,103,Submit Risk with File Attachment,200,OK,Thread Group 1-1,text,true,,11527,6604,1,1,102,0,0
1501873431384,103,Submit Risk with File Attachment,200,"Number of samples in transaction : 1, number of failing samples : 0",Thread Group 1-1,,true,,11527,6604,1,1,102,301,0
1501873432089,21,Logout,200,OK,Thread Group 1-1,text,true,,5358,850,1,1,12,0,0
1501873432412,9,Open Login Page,200,OK,Thread Group 1-1,text,true,,4785,415,1,1,9,0,0
1501873431789,30,Logout,200,"Number of samples in transaction : 2, number of failing samples : 0",Thread Group 1-1,,true,,10143,1265,1,1,21,603,0
1501873424377,5933,Submit Risk,200,"Number of samples in transaction : 11, number of failing samples : 0",Thread Group 1-1,,true,,52061,11037,1,1,5886,2111,5
1501873432723,9,Open Login Page,200,OK,Thread Group 1-1,text,true,,4780,441,1,1,9,0,0
1501873432422,9,Open Login Page,200,"Number of samples in transaction : 1, number of failing samples : 0",Thread Group 1-1,,true,,4780,441,1,1,9,302,0
1501873433033,5739,Login,200,OK,Thread Group 1-1,text,true,,8758,1451,1,1,5719,0,4
1501873439073,16,Open Reports page,200,OK,Thread Group 1-1,text,true,,6850,843,1,1,4,0,0
1501873432733,5755,Login,200,"Number of samples in transaction : 2, number of failing samples : 0",Thread Group 1-1,,true,,15608,2294,1,1,5723,602,4
1501873439390,15,Open Risk Management menu,200,OK,Thread Group 1-1,text,true,,10005,433,1,1,15,0,0
1501873439090,15,Open Risk Management Menu,200,"Number of samples in transaction : 1, number of failing samples : 0",Thread Group 1-1,,true,,10005,433,1,1,15,301,0
1501873439707,35,Submit Risk with File Attachment,200,OK,Thread Group 1-1,text,true,,11529,6372,1,1,34,0,0
1501873439406,35,Submit Risk with File Attachment,200,"Number of samples in transaction : 1, number of failing samples : 0",Thread Group 1-1,,true,,11529,6372,1,1,34,301,0
1501873440042,24,Logout,200,OK,Thread Group 1-1,text,true,,5358,850,1,1,12,0,0
1501873440367,10,Open Login Page,200,OK,Thread Group 1-1,text,true,,4785,415,1,1,10,0,0
1501873439742,34,Logout,200,"Number of samples in transaction : 2, number of failing samples : 0",Thread Group 1-1,,true,,10143,1265,1,1,22,601,0
1501873432422,5848,Submit Risk,200,"Number of samples in transaction : 11, number of failing samples : 0",Thread Group 1-1,,true,,52065,10805,1,1,5803,2108,4
1501873440680,9,Open Login Page,200,OK,Thread Group 1-1,text,true,,4780,441,1,1,9,0,0
1501873440379,9,Open Login Page,200,"Number of samples in transaction : 1, number of failing samples : 0",Thread Group 1-1,,true,,4780,441,1,1,9,302,0
1501873440990,5736,Login,200,OK,Thread Group 1-1,text,true,,8758,1451,1,1,5706,0,10
1501873447027,15,Open Reports page,200,OK,Thread Group 1-1,text,true,,6850,843,1,1,2,0,0
1501873440690,5751,Login,200,"Number of samples in transaction : 2, number of failing samples : 0",Thread Group 1-1,,true,,15608,2294,1,1,5708,601,10
1501873447343,14,Open Risk Management menu,200,OK,Thread Group 1-1,text,true,,10002,433,1,1,13,0,0
1501873447043,14,Open Risk Management Menu,200,"Number of samples in transaction : 1, number of failing samples : 0",Thread Group 1-1,,true,,10002,433,1,1,13,301,0
1501873447658,33,Submit Risk with File Attachment,200,OK,Thread Group 1-1,text,true,,11525,6372,1,1,32,0,0
1501873447358,33,Submit Risk with File Attachment,200,"Number of samples in transaction : 1, number of failing samples : 0",Thread Group 1-1,,true,,11525,6372,1,1,32,301,0
1501873447993,18,Logout,200,OK,Thread Group 1-1,text,true,,5358,850,1,1,11,0,0
1501873448313,9,Open Login Page,200,OK,Thread Group 1-1,text,true,,4785,415,1,1,9,0,0
1501873447692,27,Logout,200,"Number of samples in transaction : 2, number of failing samples : 0",Thread Group 1-1,,true,,10143,1265,1,1,20,604,0
1501873440379,5834,Submit Risk,200,"Number of samples in transaction : 11, number of failing samples : 0",Thread Group 1-1,,true,,52058,10805,1,1,5782,2109,10
1501873497082,978,Open Login Page,200,OK,Thread Group 1-1,text,true,,4621,413,1,1,963,0,915
1501873497082,978,Open Login Page,200,OK,Thread Group 1-1,text,true,,4621,413,1,1,963,0,915
1501873496713,978,Open Login Page,200,"Number of samples in transaction : 1, number of failing samples : 0",Thread Group 1-1,,true,,4621,413,1,1,963,394,915
1501873496713,978,Open Login Page,200,"Number of samples in transaction : 1, number of failing samples : 0",Thread Group 1-1,,true,,4621,413,1,1,963,394,915
1501873498387,5852,Login,200,OK,Thread Group 1-1,text,true,,8537,1470,1,1,5822,0,0
1501873498387,5852,Login,200,OK,Thread Group 1-1,text,true,,8537,1470,1,1,5822,0,0
1501873504544,18,Open Reports page,200,OK,Thread Group 1-1,text,true,,6630,843,1,1,2,0,0
1501873504544,18,Open Reports page,200,OK,Thread Group 1-1,text,true,,6630,843,1,1,2,0,0
1501873498085,5870,Login,200,"Number of samples in transaction : 2, number of failing samples : 0",Thread Group 1-1,,true,,15167,2313,1,1,5824,607,0
1501873498085,5870,Login,200,"Number of samples in transaction : 2, number of failing samples : 0",Thread Group 1-1,,true,,15167,2313,1,1,5824,607,0
1501873504863,16,Open Risk Management menu,200,OK,Thread Group 1-1,text,true,,9764,433,1,1,15,0,0
1501873504863,16,Open Risk Management menu,200,OK,Thread Group 1-1,text,true,,9764,433,1,1,15,0,0
1501873504562,16,Open Risk Management Menu,200,"Number of samples in transaction : 1, number of failing samples : 0",Thread Group 1-1,,true,,9764,433,1,1,15,305,0
1501873504562,16,Open Risk Management Menu,200,"Number of samples in transaction : 1, number of failing samples : 0",Thread Group 1-1,,true,,9764,433,1,1,15,305,0
1501873505184,56,Submit Risk with File Attachment,200,OK,Thread Group 1-1,text,true,,11507,6604,1,1,53,0,0
1501873505184,56,Submit Risk with File Attachment,200,OK,Thread Group 1-1,text,true,,11507,6604,1,1,53,0,0
1501873504883,56,Submit Risk with File Attachment,200,"Number of samples in transaction : 1, number of failing samples : 0",Thread Group 1-1,,true,,11507,6604,1,1,53,302,0
1501873504883,56,Submit Risk with File Attachment,200,"Number of samples in transaction : 1, number of failing samples : 0",Thread Group 1-1,,true,,11507,6604,1,1,53,302,0
1501873505542,21,Logout,200,OK,Thread Group 1-1,text,true,,5356,850,1,1,12,0,0
1501873505542,21,Logout,200,OK,Thread Group 1-1,text,true,,5356,850,1,1,12,0,0
1501873505864,12,Open Login Page,200,OK,Thread Group 1-1,text,true,,4766,415,1,1,12,0,0
1501873505864,12,Open Login Page,200,OK,Thread Group 1-1,text,true,,4766,415,1,1,12,0,0
1501873505242,33,Logout,200,"Number of samples in transaction : 2, number of failing samples : 0",Thread Group 1-1,,true,,10122,1265,1,1,24,602,0
1501873505242,33,Logout,200,"Number of samples in transaction : 2, number of failing samples : 0",Thread Group 1-1,,true,,10122,1265,1,1,24,602,0
1501873496713,6953,Submit Risk,200,"Number of samples in transaction : 11, number of failing samples : 0",Thread Group 1-1,,true,,51181,11028,1,1,6879,2211,915
1501873496713,6953,Submit Risk,200,"Number of samples in transaction : 11, number of failing samples : 0",Thread Group 1-1,,true,,51181,11028,1,1,6879,2211,915
1501873506179,10,Open Login Page,200,OK,Thread Group 1-1,text,true,,4761,441,1,1,10,0,0
1501873506179,10,Open Login Page,200,OK,Thread Group 1-1,text,true,,4761,441,1,1,10,0,0
1501873505878,10,Open Login Page,200,"Number of samples in transaction : 1, number of failing samples : 0",Thread Group 1-1,,true,,4761,441,1,1,10,302,0
1501873505878,10,Open Login Page,200,"Number of samples in transaction : 1, number of failing samples : 0",Thread Group 1-1,,true,,4761,441,1,1,10,302,0
1501873506490,5568,Login,200,OK,Thread Group 1-1,text,true,,8756,1451,1,1,5544,0,8
1501873506490,5568,Login,200,OK,Thread Group 1-1,text,true,,8756,1451,1,1,5544,0,8
1501873512359,17,Open Reports page,200,OK,Thread Group 1-1,text,true,,6848,843,1,1,3,0,0
1501873512359,17,Open Reports page,200,OK,Thread Group 1-1,text,true,,6848,843,1,1,3,0,0
1501873506190,5585,Login,200,"Number of samples in transaction : 2, number of failing samples : 0",Thread Group 1-1,,true,,15604,2294,1,1,5547,601,8
1501873506190,5585,Login,200,"Number of samples in transaction : 2, number of failing samples : 0",Thread Group 1-1,,true,,15604,2294,1,1,5547,601,8
1501873512677,17,Open Risk Management menu,200,OK,Thread Group 1-1,text,true,,9984,433,1,1,16,0,0
1501873512677,17,Open Risk Management menu,200,OK,Thread Group 1-1,text,true,,9984,433,1,1,16,0,0
1501873512377,17,Open Risk Management Menu,200,"Number of samples in transaction : 1, number of failing samples : 0",Thread Group 1-1,,true,,9984,433,1,1,16,303,0
1501873512377,17,Open Risk Management Menu,200,"Number of samples in transaction : 1, number of failing samples : 0",Thread Group 1-1,,true,,9984,433,1,1,16,303,0
1501873512998,44,Submit Risk with File Attachment,200,OK,Thread Group 1-1,text,true,,11508,6256,1,1,43,0,0
1501873512998,44,Submit Risk with File Attachment,200,OK,Thread Group 1-1,text,true,,11508,6256,1,1,43,0,0
1501873512697,44,Submit Risk with File Attachment,200,"Number of samples in transaction : 1, number of failing samples : 0",Thread Group 1-1,,true,,11508,6256,1,1,43,302,0
1501873512697,44,Submit Risk with File Attachment,200,"Number of samples in transaction : 1, number of failing samples : 0",Thread Group 1-1,,true,,11508,6256,1,1,43,302,0
1501873513343,25,Logout,200,OK,Thread Group 1-1,text,true,,5356,850,1,1,16,0,0
1501873513343,25,Logout,200,OK,Thread Group 1-1,text,true,,5356,850,1,1,16,0,0
1501873513669,10,Open Login Page,200,OK,Thread Group 1-1,text,true,,4766,415,1,1,9,0,0
1501873513669,10,Open Login Page,200,OK,Thread Group 1-1,text,true,,4766,415,1,1,9,0,0
1501873513043,35,Logout,200,"Number of samples in transaction : 2, number of failing samples : 0",Thread Group 1-1,,true,,10122,1265,1,1,25,601,0
1501873513043,35,Logout,200,"Number of samples in transaction : 2, number of failing samples : 0",Thread Group 1-1,,true,,10122,1265,1,1,25,601,0
1501873505878,5691,Submit Risk,200,"Number of samples in transaction : 11, number of failing samples : 0",Thread Group 1-1,,true,,51979,10689,1,1,5641,2110,8
1501873505878,5691,Submit Risk,200,"Number of samples in transaction : 11, number of failing samples : 0",Thread Group 1-1,,true,,51979,10689,1,1,5641,2110,8
